Analysing Nanobody CDR3 Sequences with abseqr • abseqr
…
# Find the most common CDR3 length
common_len <- seqs |>
  dplyr::filter(!is.na(cdr3_length)) |>
  dplyr::count(cdr3_length, sort = TRUE) |>
  dplyr::slice(1) |>
  dplyr::pull(cdr3_length)

cat("Most common CDR3 length:", common_len, "residues\n")
#> Most common CDR3 length: 18 residues

comp <- aa_composition(seqs, length_filter = common_len)
comp
#> # A tibble: 31 × 4
#>    position amino_acid     n frequency
#>       <int> <chr>      <int>     <dbl>
#>  1        1 A             10       1  
#>  2        2 A             10       1  
#>  3        3 G              2       0.2
#>  4        3 R              6       0.6
#>  5        3 T              2       0.2
#>  6        4 D              7       0.7
#>  7        4 E              1       0.1
#>  8        4 G              2       0.2
#>  9        5 Y             10       1  
#> 10        6 Y             10       1  
#> # ℹ 21 more rows
…
