Read a Chothia-renumbered PDB file into a tidy tibble — read_chothia_pdb • abseqr
…
chain_type
Character. "H" (heavy), "L" (light),
or "other" — inferred from REMARK 5 lines.

    Details

    Chain type (heavy/light/other) is inferred from the SAbDab REMARK 5
header lines when present.

    Examples

pdb_file <- system.file("extdata", "1f2x.pdb", package = "abseqr")
atoms <- read_chothia_pdb(pdb_file)
atoms
#> # A tibble: 252 × 13
#>    record atom_serial atom_name res_name chain_id res_seq res_num ins_code     x
#>    <chr>        <int> <chr>     <chr>    <chr>    <chr>     <int> <chr>    <dbl>
#>  1 ATOM             2 CA        GLN      K        1             1 ""        7.79
#>  2 ATOM             7 CA        VAL      K        2             2 ""        6.29
#>  3 ATOM            14 CA        GLN      K        3             3 ""        8.58
#>  4 ATOM            23 CA        LEU      K        4             4 ""        7.99
#>  5 ATOM            31 CA        VAL      K        5             5 ""       10.6 
#>  6 ATOM            38 CA        GLU      K        6             6 ""       10.8 
#>  7 ATOM            47 CA        SER      K        7             7 ""       12.6 
#>  8 ATOM            53 CA        GLY      K        8             8 ""       12.5 
#>  9 ATOM            57 CA        GLY      K        9             9 ""       14.3 
#> 10 ATOM            61 CA        GLY      K        10           10 ""       17.3 
#> # ℹ 242 more rows
#> # ℹ 4 more variables: y <dbl>, z <dbl>, aa1 <chr>, chain_type <chr>
…
